{
  "type": "minecraft:crafting_shaped",
  "fabric:load_conditions": [

    {
      "condition": "mysticalagriculture:crop_enabled",
      "crop": "mysticalagriculture:cyanite"
    },
    {
      "condition": "mysticalagriculture:crop_has_material",
      "crop": "mysticalagriculture:cyanite"
    }
  ],
  "group": "mysticalagriculture:seeds",
  "key": {
    "E": {
      "fabric:type": "mysticalagriculture:crop_component",
      "component": "essence",
      "crop": "mysticalagriculture:cyanite"
    },
    "M": {
      "fabric:type": "mysticalagriculture:crop_component",
      "component": "material",
      "crop": "mysticalagriculture:cyanite"
    },
    "S": {
      "fabric:type": "mysticalagriculture:crop_component",
      "component": "seed",
      "crop": "mysticalagriculture:cyanite"
    }
  },
  "pattern": [
    "MEM",
    "ESE",
    "MEM"
  ],
  "result": {
    "item": "mysticalagriculture:cyanite_seeds"
  }
}